…
**removecolumn**: removes a specific column from a dataframe

``` r
library(tidyverse)
#> ── Attaching packages ─────────────────────────────────────── tidyverse 1.3.1 ──
#> ✔ ggplot2 3.3.6     ✔ purrr   0.3.4
#> ✔ tibble  3.1.7     ✔ dplyr   1.0.9
#> ✔ tidyr   1.2.0     ✔ stringr 1.4.0
#> ✔ readr   2.1.2     ✔ forcats 0.5.1
#> ── Conflicts ────────────────────────────────────────── tidyverse_conflicts() ──
#> ✖ dplyr::filter() masks stats::filter()
#> ✖ dplyr::lag()    masks stats::lag()
layout
#> # A tibble: 384 × 10
#>    WellId WellAddress Column   Row Drug  R2ID  Concentration Cells Type  Control
#>     <dbl> <chr>        <dbl> <dbl> <chr> <lgl> <lgl>         <lgl> <lgl> <lgl>  
#>  1      1 A1               1     1 Anal… NA    NA            NA    NA    NA     
#>  2     25 B1               1     2 Anal… NA    NA            NA    NA    NA     
#>  3     49 C1               1     3 Anal… NA    NA            NA    NA    NA     
#>  4     73 D1               1     4 Anal… NA    NA            NA    NA    NA     
#>  5     97 E1               1     5 Anal… NA    NA            NA    NA    NA     
#>  6    121 F1               1     6 Anal… NA    NA            NA    NA    NA     
#>  7    145 G1               1     7 Anal… NA    NA            NA    NA    NA     
#>  8    169 H1               1     8 Anal… NA    NA            NA    NA    NA     
#>  9    193 I1               1     9 Anal… NA    NA            NA    NA    NA     
#> 10    217 J1               1    10 Anal… NA    NA            NA    NA    NA     
#> # … with 374 more rows
removecolumn(layout, "Drug")
#> # A tibble: 384 × 9
#>    WellId WellAddress Column   Row R2ID  Concentration Cells Type  Control
#>     <dbl> <chr>        <dbl> <dbl> <lgl> <lgl>         <lgl> <lgl> <lgl>  
#>  1      1 A1               1     1 NA    NA            NA    NA    NA     
#>  2     25 B1               1     2 NA    NA            NA    NA    NA     
#>  3     49 C1               1     3 NA    NA            NA    NA    NA     
#>  4     73 D1               1     4 NA    NA            NA    NA    NA     
#>  5     97 E1               1     5 NA    NA            NA    NA    NA     
#>  6    121 F1               1     6 NA    NA            NA    NA    NA     
#>  7    145 G1               1     7 NA    NA            NA    NA    NA     
#>  8    169 H1               1     8 NA    NA            NA    NA    NA     
#>  9    193 I1               1     9 NA    NA            NA    NA    NA     
#> 10    217 J1               1    10 NA    NA            NA    NA    NA     
#> # … with 374 more rows
```
…
``` r
subset(layout, 6)
#> # A tibble: 1 × 10
#>   WellId WellAddress Column   Row Drug   R2ID  Concentration Cells Type  Control
#>    <dbl> <chr>        <dbl> <dbl> <chr>  <lgl> <lgl>         <lgl> <lgl> <lgl>  
#> 1    121 F1               1     6 Analy… NA    NA            NA    NA    NA
```

**replacevalue**: lets you replace a specific value in a dataframe with
a user defined value

``` r
layout
#> # A tibble: 384 × 10
#>    WellId WellAddress Column   Row Drug  R2ID  Concentration Cells Type  Control
#>     <dbl> <chr>        <dbl> <dbl> <chr> <lgl> <lgl>         <lgl> <lgl> <lgl>  
#>  1      1 A1               1     1 Anal… NA    NA            NA    NA    NA     
#>  2     25 B1               1     2 Anal… NA    NA            NA    NA    NA     
#>  3     49 C1               1     3 Anal… NA    NA            NA    NA    NA     
#>  4     73 D1               1     4 Anal… NA    NA            NA    NA    NA     
#>  5     97 E1               1     5 Anal… NA    NA            NA    NA    NA     
#>  6    121 F1               1     6 Anal… NA    NA            NA    NA    NA     
#>  7    145 G1               1     7 Anal… NA    NA            NA    NA    NA     
#>  8    169 H1               1     8 Anal… NA    NA            NA    NA    NA     
#>  9    193 I1               1     9 Anal… NA    NA            NA    NA    NA     
#> 10    217 J1               1    10 Anal… NA    NA            NA    NA    NA     
#> # … with 374 more rows
replacevalue(layout, 'Drug', "Analyfyn", "test")
#> # A tibble: 384 × 10
#>    WellId WellAddress Column   Row Drug  R2ID  Concentration Cells Type  Control
#>     <dbl> <chr>        <dbl> <dbl> <chr> <lgl> <lgl>         <lgl> <lgl> <lgl>  
#>  1      1 A1               1     1 test  NA    NA            NA    NA    NA     
#>  2     25 B1               1     2 test  NA    NA            NA    NA    NA     
#>  3     49 C1               1     3 test  NA    NA            NA    NA    NA     
#>  4     73 D1               1     4 test  NA    NA            NA    NA    NA     
#>  5     97 E1               1     5 test  NA    NA            NA    NA    NA     
#>  6    121 F1               1     6 test  NA    NA            NA    NA    NA     
#>  7    145 G1               1     7 test  NA    NA            NA    NA    NA     
#>  8    169 H1               1     8 test  NA    NA            NA    NA    NA     
#>  9    193 I1               1     9 test  NA    NA            NA    NA    NA     
#> 10    217 J1               1    10 test  NA    NA            NA    NA    NA     
#> # … with 374 more rows
```
…
